<svg id="Слой_1" data-name="Слой 1" xmlns="http://www.w3.org/2000/svg" viewBox="0 0 45.01074 45">
  <defs>
    <style>
      .cls-1 {
        fill: #919292;
      }
    </style>
  </defs>
  <title>ic_social_linkedin</title>
  <path class="cls-1" d="M45.01074,45H0V0H45.01074V45ZM1,44H44.01074V1H1V44Z"/>
  <path class="cls-1" d="M29.41351,23.09509c-0.20282-1.80414-.95752-2.69263-2.57159-2.92792a3.39958,3.39958,0,0,0-3.7099,1.5304,0.25541,0.25541,0,0,1-.08972.02124V20.28467H20.26819v9.1994H23.1911c-0.00732-.76788-0.02167-1.53571-0.0199-2.30347,0.00232-.95239-0.0213-1.90723.03809-2.85651a1.66322,1.66322,0,0,1,1.87683-1.70331,1.20261,1.20261,0,0,1,1.27637.94031,5.63774,5.63774,0,0,1,.18329,1.34381c0.02612,1.52606.018,3.05267,0.02283,4.57916h2.92291V23.76691C29.46539,23.54291,29.43872,23.31909,29.41351,23.09509ZM18.75458,20.66388V20.28607H15.85132v9.198h2.92291c-0.00653-.129-0.01874-0.258-0.01874-0.38708Q18.75375,24.88052,18.75458,20.66388Zm-0.675-4.9389a5.6707,5.6707,0,0,0-.60437-0.20911H17.15039c-0.07086.02252-.14056,0.05121-0.213,0.06659A1.79448,1.79448,0,1,0,18.07959,15.725Z"/>
</svg>
