<svg id="Слой_1" data-name="Слой 1" xmlns="http://www.w3.org/2000/svg" viewBox="0 0 202.10748 55.06866">
  <defs>
    <style>
      .cls-1 {
        fill: #232425;
      }
    </style>
  </defs>
  <title>img_service_logo_edison</title>
  <text x="-15.4462" y="-12.01233"/>  <path class="cls-1" d="M15.47971,45.61268l22.8382,1.94086L21.57358,35.27192,40.77372,42.2912l-18.4646-23.43L45.6854,37.23243l-7.024-19.08154L50.32261,34.36353l-1.03839-22.3266,7.31311,22.39478,5.44806-22.41937H15.4462V58.70179h0.01892l22.57928-5.06689ZM62.24607,58.93219H15.64689V67.081H70.32309V12.21259h-8.077v46.7196Zm152.513-24.27069a2.79966,2.79966,0,1,0,2.79462,2.80072A2.8,2.8,0,0,0,214.75907,34.6615Zm0,5.567a2.76712,2.76712,0,1,1,2.76233-2.7663A2.7667,2.7667,0,0,1,214.75907,40.22852Zm1.345-1.51062-0.695-.9024a1.8735,1.8735,0,0,0-.28577-0.291,0.97228,0.97228,0,0,0,.86725-0.96136,0.99052,0.99052,0,0,0-1.21436-.95929c-0.22394,0-.44635.02887-0.74475,0.02887-0.20935,0-.438-0.0119-0.65607-0.02887v0.119h0.1167c0.2179,0,.27167.04755,0.27167,0.30249v2.679c0,0.2533-.05377.30353-0.27167,0.30353h-0.1167V39.1236h0.00012c0.2179-.01367.44666-0.02679,0.65594-0.02679,0.17041,0,.39923.01147,0.61823,0.02679V39.00782h-0.11688c-0.21912,0-.27234-0.05023-0.27234-0.30353V37.62a0.5132,0.5132,0,0,1,.59351.26373l0.94659,1.23987a3.62491,3.62491,0,0,1,.39-0.02679,3.39983,3.39983,0,0,1,.399.02679V39.00782A0.5443,0.5443,0,0,1,216.1041,38.7179Zm-1.61389-1.242c-0.0824,0-.16541-0.00391-0.22974-0.00977v-1.5708c0-.10693.02545-0.11731,0.18005-0.11731,0.9101,0,1.01727.4455,1.01727,0.87891A0.80372,0.80372,0,0,1,214.49021,37.4759ZM87.46293,47.208h9.29065v-1.5882H87.46293V36.1601h9.857V34.57093H82.85532v24.5202H97.4708V57.50068H87.46293V47.208Zm42.78186,11.88312h4.60761V34.57093h-4.60761v24.5202Zm-18.74567-24.5202h-7.9682v24.5202h8.8371c7.13776,0,12.1601-3.97241,12.1601-11.8056C124.52811,40.8509,120.33658,34.57093,111.49912,34.57093ZM111.0076,57.50068h-2.86981V36.1601h3.0968c5.81641,0,8.68683,5.03149,8.68683,11.20068C119.92142,52.16523,118.3729,57.50068,111.0076,57.50068Zm62.64319-23.61224c-7.06287,0-12.1228,5.71448-12.1228,12.94116,0,7.22888,5.05994,12.94232,12.1228,12.94232,7.10083,0,12.16071-5.71344,12.16071-12.94232C185.8115,39.60291,180.75162,33.88843,173.65079,33.88843Zm0,24.29529c-5.89209,0-7.176-6.5863-7.176-11.35413,0-4.7666,1.28394-11.35022,7.176-11.35022,5.89233,0,7.214,6.58362,7.214,11.35022C180.86478,51.59742,179.54313,58.18372,173.65079,58.18372ZM145.926,40.0954a3.96234,3.96234,0,0,1,4.00269-4.27649c2.60638,0,4.07751,1.514,5.023,3.48212l1.58588-1.02313a8.19315,8.19315,0,0,0-7.36487-4.38947c-4.5683,0-7.85388,3.25494-7.85388,7.19019,0,8.77881,11.48029,5.41089,11.48029,12.52509a4.3752,4.3752,0,0,1-4.37982,4.23877c-2.41779,0-3.7771-1.09735-5.06219-3.14136l-1.7,1.2486c1.7,2.83838,4.3808,3.8222,7.70532,3.8222,4.11719,0,8.04407-2.99023,8.04407-7.49261C157.40647,43.4245,145.926,45.84693,145.926,40.0954Zm62.105,11.35291H207.9542L195.15378,34.57093h-4.117v24.5202h1.96283V39.527h0.0769L207.9542,59.09113h2.03967V34.57093H208.031V51.44831ZM112.84318,24.87378h3.28253V28.7309h1.50549V20.71973h-1.50549v3.5235h-3.28253v-3.5235H111.3375V28.7309h1.50568V24.87378Zm80.02643-2.5343H192.894l4.86139,6.39142h0.66571V20.71973h-0.6413v5.514h-0.02441l-4.18243-5.514h-1.34479V28.7309h0.64142V22.33948Zm9.16919-1.62036H200.535V28.7309h1.50378V20.71912ZM106.96787,28.7309h1.505V21.23829h1.59265V20.71973h-4.68884v0.51855h1.59119V28.7309Zm17.452-.51813h-3.27051v-3.3642h3.03632V24.33h-3.03632V21.23829h3.22131V20.71973h-4.72632V28.7309h4.77551V28.21277Zm47.58087-3.3642h2.81476V24.33h-2.81476V21.23829h3.08594V20.71973h-4.59V28.7309h1.50409V24.84858Zm-3.67389-4.12946h-1.50641V28.7309h1.50641V20.71912Zm-18.8501,8.2345a3.56977,3.56977,0,0,0,3.48053-2.1264l-0.53174-.2594a2.87858,2.87858,0,0,1-2.65179,1.75641c-1.8399,0-2.75256-1.75641-2.75256-3.56073,0-2.31268.98828-3.74689,2.93756-3.74689a2.94641,2.94641,0,0,1,2.30725,1.45831l0.4444-.32159a3.8008,3.8008,0,0,0-3.08612-1.65643A4.22983,4.22983,0,0,0,149.47678,28.95362Zm30.23779,0a4.0114,4.0114,0,0,0,3.97455-4.22833,3.97589,3.97589,0,1,0-7.93573,0A4.00968,4.00968,0,0,0,179.71457,28.95362Zm0-7.937c1.92523,0,2.35852,2.15112,2.35852,3.70868s-0.43329,3.71033-2.35852,3.71033c-1.92389,0-2.34375-2.15283-2.34375-3.71033S177.79068,21.01661,179.71457,21.01661Zm-23.32471-.51971-3.25519,8.234h0.70343l0.802-2.08942h2.75146l0.85083,2.08942h1.54169l-3.36707-8.234h-0.02716Zm-1.54144,5.62659,1.16058-2.94379,1.1734,2.94379h-2.334ZM165.624,28.1009h-3.21033V20.71973h-1.504V28.7309H165.624v-0.63Zm40.98071-7.604-3.25873,8.234h0.70343l0.8042-2.08942h2.75031l0.85168,2.08942h1.542l-3.3692-8.234h-0.02368Zm-1.54279,5.62659,1.16077-2.94379,1.17078,2.94379h-2.33154ZM92.9484,28.95362a4.0117,4.0117,0,0,0,3.974-4.22833,3.97526,3.97526,0,1,0-7.93439,0A4.00917,4.00917,0,0,0,92.9484,28.95362Zm0-7.937c1.92572,0,2.35791,2.15112,2.35791,3.70868s-0.43219,3.71033-2.35791,3.71033c-1.92462,0-2.34363-2.15283-2.34363-3.71033S91.02378,21.01661,92.9484,21.01661Zm97.84631,2.06427a2.20664,2.20664,0,0,0-2.26959-2.36115h-3.456V28.7309h1.50525V21.116h0.81433a1.66952,1.66952,0,0,1,1.90057,1.7923c0,1.20007-.86389,1.71808-2.19629,1.71808H186.9943l2.18433,4.10449h1.65375l-2.12219-3.74518C189.90519,24.83661,190.79471,24.30487,190.79471,23.08088ZM85.052,28.32422a1.80141,1.80141,0,0,1-1.65369-1.02594l-0.55518.40674a2.66539,2.66539,0,0,0,2.5174,1.2486,2.53065,2.53065,0,0,0,2.62811-2.44751c0-2.89349-3.7511-2.10242-3.7511-3.98163A1.29366,1.29366,0,0,1,85.54508,21.128a1.74183,1.74183,0,0,1,1.64111,1.13721l0.51862-.33411a2.67371,2.67371,0,0,0-2.40643-1.4342,2.42529,2.42529,0,0,0-2.56665,2.34918c0,2.86792,3.75165,1.76843,3.75165,4.09253A1.43034,1.43034,0,0,1,85.052,28.32422Zm19.02875-7.60449h-0.64185v5.799a1.67489,1.67489,0,0,1-1.9256,1.61871,1.69235,1.69235,0,0,1-1.70306-1.69409V20.71973h-1.505v5.68756c0,2.03973,1.65338,2.54633,2.973,2.54633,2.02393,0,2.80255-1.22339,2.80255-2.25043V20.71973Zm34.63135,5.514h-0.024l-4.183-5.514H133.16V28.7309h0.64191V22.33948h0.02356l4.86261,6.39142h0.66528V20.71973h-0.6413v5.514Zm-9.06989-1.248c1.1969-.14911,2.08472-0.68085,2.08472-1.90485a2.20746,2.20746,0,0,0-2.2699-2.36115h-3.45471V28.7309H127.508V21.116h0.8139a1.66973,1.66973,0,0,1,1.90033,1.7923c0,1.20007-.86383,1.71808-2.19623,1.71808h-0.09949l2.18433,4.10449h1.65387Z" transform="translate(-15.4462 -12.01233)"/>
</svg>
