<svg id="Слой_1" data-name="Слой 1" xmlns="http://www.w3.org/2000/svg" viewBox="0 0 140.99072 32.97717">
  <defs>
    <style>
      .cls-1 {
        fill: #232425;
      }
    </style>
  </defs>
  <title>img_logo_partner_walmart</title>
  <path class="cls-1" d="M64.16532,11.35713a5.50466,5.50466,0,0,0-2.9292.78076,6.15787,6.15787,0,0,0-1.8797,1.79059H59.29691A4.24173,4.24173,0,0,0,55.20554,11.357,4.69789,4.69789,0,0,0,50.883,13.6349H50.82353V11.68153H46.99461V26.05805h4.03351V17.62678a3.27959,3.27959,0,0,1,.189-1.17682,2.7154,2.7154,0,0,1,2.45154-1.8418c1.6275,0,2.389,1.3327,2.389,3.256V26.058h4.02917V17.52467a3.88085,3.88085,0,0,1,.168-1.16541A2.53377,2.53377,0,0,1,62.67521,14.608c1.6499,0,2.44177,1.30951,2.44177,3.57269V26.058H69.1489V17.59071C69.1489,13.12507,66.8079,11.35713,64.16532,11.35713Zm19.4812,6.124c0-3.25818-1.43671-6.12408-6.29175-6.12408a11.80049,11.80049,0,0,0-5.55157,1.282l0.79071,2.61871a8.32817,8.32817,0,0,1,4.04749-1.102c2.46289-.00623,2.86682,1.34979,2.86682,2.21948v0.20557c-5.36969-.00775-8.76239,1.79224-8.76239,5.4613a4.40559,4.40559,0,0,0,4.73206,4.33954,5.4518,5.4518,0,0,0,4.3183-1.85809h0.09119s0.6134,2.48456,3.994,1.53448a20.32745,20.32745,0,0,1-.23486-3.46472V17.48109Zm-4.00842,3.4408a2.643,2.643,0,0,1-.09961.77838,2.80675,2.80675,0,0,1-2.70728,1.83783,1.80532,1.80532,0,0,1-1.99274-1.90161c0-1.97485,2.24451-2.52087,4.79962-2.50812v1.79352ZM21.30668,6.92219l-1.7818,8.27362c-0.47906,2.40826-.91388,4.2901-1.249,6.49329H18.21641c-0.30463-2.18121-.692-3.98853-1.17914-6.3349L15.182,6.92219H10.7913l-1.98462,8.2196c-0.56219,2.49768-1.08807,4.51459-1.42249,6.64307H7.32371c-0.34253-2.00446-.79871-4.53937-1.2926-6.95715,0,0-1.17908-5.879-1.59283-7.90552L0.00053,6.9228C0.01188,6.96772,3.50889,20.84773,4.06791,23.104c0.65338,2.63776,1.83087,3.60858,5.22559,2.954L11.484,17.42549a59.37576,59.37576,0,0,0,1.28442-5.85406h0.06281a55.6012,55.6012,0,0,0,1.0647,5.86163s0.89166,3.91882,1.34827,5.97711c0.45795,2.05762,1.732,3.35449,5.05719,2.6485L25.52079,6.92219H21.30668ZM0.00041,6.9228H0.00053L0,6.92073ZM40.1721,26.0572h4.01208V6.91987H40.1721V26.0572Zm-2.67548-8.57611c0-3.25818-1.43622-6.12408-6.29071-6.12408a11.7955,11.7955,0,0,0-5.55164,1.282l0.78955,2.61871a8.33192,8.33192,0,0,1,4.04828-1.102c2.4646-.00623,2.86761,1.34979,2.86761,2.21948v0.20557c-5.37054-.00775-8.76282,1.79224-8.76282,5.4613a4.40432,4.40432,0,0,0,4.72968,4.33954,5.45724,5.45724,0,0,0,4.3208-1.85809h0.09094s0.61346,2.48456,3.99359,1.53448a20.35552,20.35552,0,0,1-.23529-3.46472V17.48109Zm-4.00745,3.4408a2.62694,2.62694,0,0,1-.09967.77838,2.807,2.807,0,0,1-2.70758,1.83783,1.80517,1.80517,0,0,1-1.99243-1.90161c0-1.97485,2.24445-2.52087,4.79968-2.50812v1.79352ZM100.635,6.92079H96.67887V21.038c0,1.94641.37823,3.31012,1.18732,4.14319a4.52472,4.52472,0,0,0,3.26642,1.2005,9.81813,9.81813,0,0,0,2.90326-.41638l-0.0517-3.03693a6.27849,6.27849,0,0,1-1.524.17572c-1.3667,0-1.82513-.8479-1.82513-2.59552V15.10737h3.4942V11.44612H100.635V6.92079ZM94.10478,11.357a4.35326,4.35326,0,0,0-4.03937,3.03577H89.95268V11.68141H86.32182V26.058H90.461V18.69618a5.28976,5.28976,0,0,1,.08984-1.061,3.10252,3.10252,0,0,1,3.27161-2.52783,7.82744,7.82744,0,0,1,1.19464.10229V11.44587a4.11963,4.11963,0,0,0-.91217-0.089Zm2.57391-4.43622h0.00018V6.92073Zm33.961,6.87628a1.47581,1.47581,0,0,0,1.59174.83093l8.10968-3.65619c0.76349-.426.87286-1.64014,0.22748-2.72681a2.50656,2.50656,0,0,0-1.9256-1.32452l-0.00226-.00006a1.20968,1.20968,0,0,0-.6275.14948l-7.32214,4.97382a1.37861,1.37861,0,0,0-.05176,1.75305Zm9.70081,8.20691-8.10718-3.652a0.8451,0.8451,0,0,0-.30139-0.04913l-0.00012-.00006a1.66263,1.66263,0,0,0-1.29321.88141l0.00293-.00153a1.38361,1.38361,0,0,0,.05139,1.75629l7.32208,4.96991c0.75909,0.42529,1.90222-.09021,2.553-1.17468C141.21342,23.64649,141.104,22.43177,140.34049,22.004Zm-14.517-22.00391L125.82188,0c-1.29517,0-2.32471.70056-2.32471,1.55347l0.78662,8.62732a1.74726,1.74726,0,0,0,3.0788,0L128.153,1.55348C128.153,0.70069,127.12058.00007,125.82353,0.00007Zm0.00018,21.87823h-0.00293a1.45325,1.45325,0,0,0-1.536.91846l-0.7865,8.62689c0,0.85443,1.02954,1.55353,2.32471,1.55353,1.29773,0,2.3291-.69922,2.3291-1.55353l-0.78845-8.62689A1.4579,1.4579,0,0,0,125.82371,21.87831Zm-4.81409-2.69421a1.66187,1.66187,0,0,0-1.29413-.88141v0.00012a0.8453,0.8453,0,0,0-.3017.049l-8.106,3.652c-0.76038.42792-.87549,1.64258-0.22571,2.73029,0.64783,1.08441,1.78986,1.6,2.55035,1.17468l7.32178-4.96985a1.37785,1.37785,0,0,0,.052-1.75635Zm-9.70294-8.2124,8.106,3.65649a1.47589,1.47589,0,0,0,1.59241-.831V13.79689a1.37309,1.37309,0,0,0-.052-1.75311L113.63181,7.07a1.21263,1.21263,0,0,0-.62823-0.14954l-0.00037-.00006A2.49826,2.49826,0,0,0,111.081,8.24488C110.43107,9.33149,110.5463,10.54579,111.30668,10.97169Z" transform="translate(0.00002 -0.00001)"/>
</svg>
