<svg id="Слой_1" data-name="Слой 1" xmlns="http://www.w3.org/2000/svg" viewBox="0 0 167.18711 68.4522">
  <defs>
    <style>
      .cls-1 {
        fill: #232425;
      }
    </style>
  </defs>
  <title>img_service_logo_socalgas</title>
  <text x="-32.90641" y="-5.32056"/>  <path class="cls-1" d="M32.90641,73.678H46.6381c-0.08679-.15167-0.14258-0.256-0.20453-0.35681a34.19648,34.19648,0,0,1-5.2879-16.785,49.9292,49.9292,0,0,1,1.372-13.73883,98.39481,98.39481,0,0,1,5.52551-16.13354,180.55962,180.55962,0,0,1,8.58038-16.8894c0.24524-.43341.4931-0.86481,0.7948-1.39362a3.98226,3.98226,0,0,1,.05084.39679q0.00458,4.45963-.00073,8.92078a1.3118,1.3118,0,0,1-.1416.54755c-0.9967,2.0553-2.042,4.08777-2.998,6.16138a110.83306,110.83306,0,0,0-5.79169,15.38171,48.22141,48.22141,0,0,0-2.327,13.68488,33.71552,33.71552,0,0,0,.59784,7.44281,36.82258,36.82258,0,0,0,4.95929,11.59589,1.99355,1.99355,0,0,0,2.24738,1.21,2.0922,2.0922,0,0,1,.4-0.00317h1.29517c-0.05-.211-0.07416-0.34045-0.11139-0.46661A38.73529,38.73529,0,0,1,54.142,64.49335a58.28924,58.28924,0,0,1,.5426-11.42126,88.10214,88.10214,0,0,1,2.0238-10.06824c0.17627-.6781.36218-1.35419,0.5437-2.03137a0.58844,0.58844,0,0,1,.19818.33215c0.57031,2.55975,1.16241,5.11481,1.70172,7.68085a58.72932,58.72932,0,0,1,1.25128,14.031,43.73644,43.73644,0,0,1-1.4837,10.28406,3.49482,3.49482,0,0,0-.06128.39H70.1287v-68.37H32.90641V73.678ZM158.666,47.04743c0.35919-2.5542,2.4928-2.77734,4.135-2.215,1.03571,0.354,1.2326,1.3158,1.31317,2.2807,0.04791,0.57172.06732,1.1474,0.1004,1.73822h5.12579c-0.11835-1.15283-.18585-2.24591-0.351-3.32452a4.76286,4.76286,0,0,0-3.62671-3.96082,13.82423,13.82423,0,0,0-5.49792-.47327,8.5382,8.5382,0,0,0-2.42487.469,6.15539,6.15539,0,0,0-3.894,5.415c-0.24048,2.22681-.33008,4.47394-0.38177,6.71442a39.09533,39.09533,0,0,0,.35022,7.73212,5.409,5.409,0,0,0,3.29706,4.321,9.89392,9.89392,0,0,0,3.44751.76282,29.26984,29.26984,0,0,0,8.70618-.97809,0.35855,0.35855,0,0,0,.28345-0.45258q-0.00531-5.77478-.00354-11.54993c0-.143-0.01331-0.28522-0.02-0.42H161.5629v3.79266h2.6355c0,1.84033.00458,3.63574-.01294,5.43182a0.41769,0.41769,0,0,1-.28894.27979c-0.854.079-1.71112,0.177-2.56665,0.17389a2.4226,2.4226,0,0,1-2.71161-2.25568,13.71041,13.71041,0,0,1-.20136-2.43658c-0.00189-2.9436.02631-5.88519,0.06805-8.82751A17.76632,17.76632,0,0,1,158.666,47.04743ZM89.54661,53.39966c-1.26691-.79022-2.629-1.42651-3.90771-2.19873a13.1281,13.1281,0,0,1-2.32233-1.6922,3.04556,3.04556,0,0,1-.7077-3.48676,2.11748,2.11748,0,0,1,2.34412-1.2951,1.74369,1.74369,0,0,1,1.80829,1.51666,5.2601,5.2601,0,0,1,.16119.87152c0.05652,0.61713.08612,1.23572,0.12726,1.8587h5.21436c-0.04-.90442-0.05438-1.7785-0.12207-2.64929a4.94485,4.94485,0,0,0-3.30762-4.58563,11.22334,11.22334,0,0,0-6.68182-.41858,6.0318,6.0318,0,0,0-4.2179,3.13153,8.20921,8.20921,0,0,0-.75958,4.76306A5.0161,5.0161,0,0,0,79.218,52.91736c0.88519,0.64441,1.80719,1.24347,2.74817,1.804,1.17053,0.69635,2.38342,1.3197,3.56763,1.993A3.455,3.455,0,0,1,87.465,60.18543a2.54791,2.54791,0,0,1-2.65881,2.67322,2.10105,2.10105,0,0,1-2.4845-1.88208,2.97046,2.97046,0,0,1-.06317-0.34949c-0.07294-.68933-0.14191-1.37982-0.21436-2.09033H76.81022c0.04736,0.9176.0528,1.80634,0.14606,2.68561a5.1436,5.1436,0,0,0,3.72382,4.7182,13.21141,13.21141,0,0,0,7.532.13751,5.17766,5.17766,0,0,0,4.05243-4.094,15.59783,15.59783,0,0,0,.31708-2.99561A6.0744,6.0744,0,0,0,89.54661,53.39966Zm30.33331-8.5672a2.14927,2.14927,0,0,1,2.10535,1.9234,16.62759,16.62759,0,0,1,.17834,2.08191,0.40919,0.40919,0,0,0,.52.48578c1.34943-.02118,2.69965-0.00787,4.0495-0.00787h0.55463c-0.05463-1.0946-.07373-2.11731-0.16339-3.13342a4.94615,4.94615,0,0,0-3.349-4.41852,11.89985,11.89985,0,0,0-6.72571-.494,7.13426,7.13426,0,0,0-3.49078,1.64728,5.65509,5.65509,0,0,0-1.7854,3.86591c-0.18433,1.90472-.30792,3.8197-0.34491,5.73181a57.98254,57.98254,0,0,0,.34436,8.808,5.3787,5.3787,0,0,0,2.68256,4.14447,8.04022,8.04022,0,0,0,3.42419.99811,13.48255,13.48255,0,0,0,5.83008-.59949,4.43209,4.43209,0,0,0,3.1756-3.46521c0.22919-1.36737.2439-2.7724,0.354-4.15979,0.02069-.25787-0.14178-0.2821-0.3407-0.28168-1.4538.00311-2.90759,0.00818-4.36108-.00159a0.3064,0.3064,0,0,0-.35944.36926c-0.0144.49011-.04529,0.97931-0.09869,1.46674a8.71973,8.71973,0,0,1-.19757,1.13837c-0.37341,1.51874-1.1983,2.0318-2.986,1.829a1.93974,1.93974,0,0,1-1.796-1.6059,15.39339,15.39339,0,0,1-.35748-2.415,83.52283,83.52283,0,0,1,.08008-11.00238C116.96811,45.92078,117.64158,44.69324,119.87992,44.83246Zm-15.03711,4.40082a11.28523,11.28523,0,0,0-6.09741-.04022,3.90241,3.90241,0,0,0-2.86688,2.55579,8.59826,8.59826,0,0,0-.47913,2.20612c-0.09521,1.58392-.10937,3.17493-0.09888,4.7627,0.00769,1.14227.07178,2.287,0.17676,3.4234a4.215,4.215,0,0,0,3.21674,3.919,11.91318,11.91318,0,0,0,5.89319.06921,4.47226,4.47226,0,0,0,3.67072-4.15582c0.12988-1.19348.15088-2.398,0.239-3.90729-0.06909-1.32831-.13025-2.95953-0.24518-4.58759A4.285,4.285,0,0,0,104.84281,49.23328ZM103.5676,61.48a3.83141,3.83141,0,0,1-.19739,1.04407,1.37467,1.37467,0,0,1-1.46362.9903,1.32265,1.32265,0,0,1-1.55908-.96088,15.33444,15.33444,0,0,1-.32324-2.50232c-0.05188-.81451-0.011-1.634-0.011-2.45227-0.0271-.00092-0.054-0.00165-0.08093-0.002,0.06952-1.394.12909-2.78723,0.217-4.17889a2.3508,2.3508,0,0,1,.229-0.76129,1.46081,1.46081,0,0,1,1.53064-.91095,1.30522,1.30522,0,0,1,1.44458,1.11572,9.70552,9.70552,0,0,1,.27808,2.06812ZM184.731,53.08344a3.745,3.745,0,0,0-2.8573-3.83575,11.037,11.037,0,0,0-6.51849.09418,3.7876,3.7876,0,0,0-2.72711,4.6311H177.13c0.07819-.5733.1228-1.12128,0.23383-1.65472a0.99236,0.99236,0,0,1,1.10577-.87927c0.178-.004.35669-0.0094,0.53394,0.00348a1.02216,1.02216,0,0,1,1.02631.82581,5.43512,5.43512,0,0,1,.15375,1.09973c0.02393,0.69135.007,1.38458,0.007,2.08917-0.2616,0-.468.01129-0.67291-0.00189a12.90686,12.90686,0,0,0-3.926.29669,3.81929,3.81929,0,0,0-3.0387,2.8028,10.23551,10.23551,0,0,0-.05444,5.2832,2.98678,2.98678,0,0,0,2.27753,2.38,4.84154,4.84154,0,0,0,5.04181-1.52917c0.09937-.11414.20538-0.22351,0.36768-0.39783,0.05109,0.689.0943,1.27161,0.13611,1.83478h4.6062c-0.0368-1.36859-.08881-2.702-0.10541-4.03589C184.78568,59.08735,184.79221,56.08527,184.731,53.08344Zm-4.76959,9.221a1.57694,1.57694,0,0,1-1.99609,1.22522,1.11957,1.11957,0,0,1-.94934-0.83124,6.516,6.516,0,0,1,.03223-3.55988,1.35656,1.35656,0,0,1,1.11169-.98291c0.64911-.11328,1.316-0.12268,2.04932-0.18127A17.33337,17.33337,0,0,1,179.9614,62.30445Zm-37.68573.17084c-0.04578-3.19452-.0307-6.39124-0.102-9.58484a3.70361,3.70361,0,0,0-2.83917-3.65686,11.27833,11.27833,0,0,0-4.08771-.35522,7.11738,7.11738,0,0,0-3.84192,1.217,2.97387,2.97387,0,0,0-.94,1.14,6.2905,6.2905,0,0,0-.3587,2.68951,0.43325,0.43325,0,0,0,.11493.0528c1.3941,0.00781,2.78821.01868,4.18207,0.00421a0.43207,0.43207,0,0,0,.26239-0.30444c0.06964-.42316.06854-0.85815,0.14215-1.2807a1.03306,1.03306,0,0,1,1.04846-.95819,4.69168,4.69168,0,0,1,.66742.00861,1.05775,1.05775,0,0,1,1.0069.80389,12.2343,12.2343,0,0,1,.18262,3.20654c-0.27423,0-.49371.01215-0.71124-0.00232a12.81367,12.81367,0,0,0-3.925.297,3.92362,3.92362,0,0,0-3.1225,3.0592,10.58947,10.58947,0,0,0-.0863,4.63806,3.14311,3.14311,0,0,0,2.29169,2.73792,4.81861,4.81861,0,0,0,4.75494-1.10791c0.24957-.23718.49329-0.47906,0.83679-0.81317v1.86841h4.686c0-.18439.007-0.34473-0.00116-0.50421C142.3826,64.57856,142.2905,63.527,142.27567,62.47529Zm-4.58521-1.79614a7.32559,7.32559,0,0,1-.32776,1.86841,1.61919,1.61919,0,0,1-2.1955.90509,1.2166,1.2166,0,0,1-.77661-1.1059,20.22049,20.22049,0,0,1,.0177-2.785,1.55593,1.55593,0,0,1,1.4812-1.469c0.582-.07471,1.17511-0.06091,1.81427-0.0899C137.70377,58.93726,137.7443,59.81116,137.69046,60.67914Zm61.42535-2.33856a8.57008,8.57008,0,0,0-2.56964-1.949c-0.93408-.51392-1.8996-0.9707-2.82568-1.49866a5.07485,5.07485,0,0,1-1.1875-.91522,1.66153,1.66153,0,0,1-.13123-1.99158,1.54864,1.54864,0,0,1,1.67932-.519,1.39993,1.39993,0,0,1,1.014,1.45343c0.02924,0.38269.05231,0.76477,0.07922,1.16577h4.436c0-.44238.02545-0.8562-0.00446-1.2666a3.59624,3.59624,0,0,0-2.06232-3.20886,8.97173,8.97173,0,0,0-7.12543-.18414,4.44016,4.44016,0,0,0-2.44366,6.029,4.928,4.928,0,0,0,2.36029,2.27252c1.1203,0.60419,2.27069,1.15131,3.3905,1.75708a4.99045,4.99045,0,0,1,1.07208.78351,2.23754,2.23754,0,0,1,.27362,2.6723,1.629,1.629,0,0,1-1.7821.69989,1.418,1.418,0,0,1-1.14093-1.45288c-0.05444-.51318-0.073-1.03021-0.11127-1.59839H191.523q-1.35709.00046-2.71442,0.00031c-1.395,0-1.41809.00281-1.26386,1.41156a4.09552,4.09552,0,0,0,2.52,3.69873,9.56983,9.56983,0,0,0,7.03223.1015C200.57157,64.50354,200.70591,60.24805,199.11582,58.34058Zm-53.57153,7.79968h4.57941V41.42884h-4.57941V66.14026Z" transform="translate(-32.90641 -5.32056)"/>
</svg>
