<svg id="Слой_1" data-name="Слой 1" xmlns="http://www.w3.org/2000/svg" viewBox="0 0 100.71076 79.09188">
  <defs>
    <style>
      .cls-1 {
        fill: #232425;
      }
    </style>
  </defs>
  <title>img_service_logo_dish</title>
  <text x="-66.14457" y="-0.00144"/>  <path class="cls-1" d="M161.10911,51.78211h0.79028v2.07147H162.224V51.78211h0.78943V51.50068h-1.9043v0.28143Zm3.31635,1.7074-0.67517-1.98883h-0.4549v2.35291h0.3056v-1.388c0-.056-0.0014-0.14209-0.0083-0.25989,0-.1178-0.00238-0.20557-0.00238-0.26392v-0.0719l0.67474,1.9837h0.31451l0.67041-1.9837c0,0.12793-.0022.2475-0.0033,0.35742-0.0022.111-.0033,0.18958-0.0033,0.23773v1.38855h0.30048V51.50068H165.0936ZM122.6464,28.60242c2.0014,0,4.46216.743,5.7132,6.55481l0.12347,0.57025h2.19269l-0.27325-9.3858h-1.75592l-0.20868.36475a0.495,0.495,0,0,1-.41473.27289,9.15481,9.15481,0,0,1-.88068-0.25873,14.99714,14.99714,0,0,0-4.49609-.8999c-5.04333,0-8.70312,3.30151-8.70312,7.85291,0,4.61469,3.37439,6.90259,7.13342,9.03131l3.352,1.91022c1.82709,1.03119,2.64142,2.1955,2.64142,3.77661,0,2.09076-1.54071,3.39038-4.02075,3.39038-4.57275,0-5.94757-3.80829-6.693-7.5318l-0.11438-.58038h-2.239V54.15772h1.73871l0.21478-.244a0.76844,0.76844,0,0,1,.79144-0.45251,10.8513,10.8513,0,0,1,2.53809.41571,18.3002,18.3002,0,0,0,4.16968.62573c3.78119,0,9.10791-2.54211,9.10791-8.196,0-3.94257-2.357-5.70886-5.20367-7.45587l-6.25281-3.71442A3.87138,3.87138,0,0,1,118.9755,31.644C118.9755,30.42078,119.95029,28.60242,122.6464,28.60242Zm-44.488,25.90076a9.38834,9.38834,0,0,0,6.85339-2.58856v2.05566l0.82941,0.62183,9.34491-3.314v-2.2193l-0.77637.06061c-1.81592.141-2.51331-.12177-2.778-0.3653a1.97235,1.97235,0,0,1-.3194-1.46552V13.24653L90.3154,12.8479l-0.07043.0249-0.18756.06567c-1.03772.37213-5.12732,1.71423-8.42944,2.52911l-0.54871.137v2.2981l0.79541-.085c1.85138-.1897,2.55414.05273,2.81763,0.28882a2.42829,2.42829,0,0,1,.31976,1.71527v7.72949a8.74664,8.74664,0,0,0-5.40729-1.73059,11.8719,11.8719,0,0,0-8.96741,4.54059,16.51421,16.51421,0,0,0-3.72571,10.43866C66.91166,54.11988,77.00779,54.50318,78.15836,54.50318Zm1.6189-25.61255a5.282,5.282,0,0,1,5.23431,5.42V47.18262c-0.3996,1.65985-2.25671,2.86267-4.42529,2.86267-3.34882,0-7.25848-2.908-7.25848-11.09949C73.32779,31.52558,76.80149,28.89063,79.77726,28.89063ZM68.76169,64.51081H68.48118c-0.6532,0-.79547-0.24512-0.79547-1.39252V58.68421L72.7656,65.025h0.326V58.65021c0-1.14624.14032-1.3902,0.80444-1.3902h0.26947v-0.3512h-2.6853V57.26c1.13123,0,1.14545.20886,1.14545,1.3902v3.24152l-3.98132-4.98291H66.14457V57.26c1.05164,0,1.07568.26837,1.07568,1.3902v4.46808c0,1.1474-.142,1.39252-0.80408,1.39252H66.14457v0.363h2.61713v-0.363ZM79.5394,64.51252H79.273V64.875h6.72119l0.57312-2.4917H86.20578a2.96528,2.96528,0,0,1-3.01392,2.072c-0.80438,0-.9444-0.15405-0.9444-1.02954V61.061c1.30719,0,1.58661.64392,1.70422,1.81439h0.36041V58.828H83.95218c-0.13928,1.132-.444,1.70691-1.70428,1.73181V57.86988c0-.42249.11591-0.48419,0.98041-0.48419a2.47208,2.47208,0,0,1,1.69159.41162,1.71637,1.71637,0,0,1,.71356,1.50861h0.36072V56.90882H79.273v0.35956c1.0481,0,1.07281.26,1.07281,1.39423v4.45569C80.3458,64.27808,80.20591,64.51252,79.5394,64.51252ZM99.4376,59.37732h0.317V56.90882H92.78476v2.46851h0.31671A1.93183,1.93183,0,0,1,95.317,57.38569v5.7326c0,1.17169,0,1.39252-1.1452,1.39252v0.363h4.19067v-0.363c-1.1308,0-1.141-.22083-1.141-1.39252v-5.7326C98.70218,57.41108,99.2164,57.93671,99.4376,59.37732Zm7.548-.726,2.20673,6.37549h0.29047l2.25494-5.5769,1.938,5.5769H114.003l2.17322-6.37549a1.66973,1.66973,0,0,1,1.07343-1.39081V56.90943H114.9733V57.2605h0.37061c0.421,0,.57178.13928,0.57178,0.47913a2.50008,2.50008,0,0,1-.23419.91168l-1.20123,3.5813-1.13226-3.5813a2.64968,2.64968,0,0,1-.212-0.90039c0-.35052.16681-0.49042,0.57623-0.49042h0.17236V56.90992h-3.75989V57.2605c0.9104,0,1.09631.77191,1.36523,1.48431l-1.39734,3.4873-1.18036-3.58081a2.83467,2.83467,0,0,1-.23322-0.92419c0-.32733.16211-0.46661,0.572-0.46661h0.22351V56.90943h-3.50421V57.2605C106.53129,57.48188,106.62571,57.611,106.98557,58.65131Zm52.1319,4.4823L156.50028,59.904l1.15552-1.19427a3.48442,3.48442,0,0,1,2.5816-1.41473V56.90992h-3.33984v0.35181h0.77124c0.291,0,.387.04639,0.387,0.18567a1.4282,1.4282,0,0,1-.43176.6875l-0.51483.51532-2.10388,2.18988V58.65131c0-1.14673.13971-1.38959,0.8053-1.38959H156.081V56.90992h-4.05182v0.35181c1.05084,0,1.07312.26837,1.07312,1.38959V63.133c0,1.14508-.1391,1.39093-0.80469,1.39093H152.029V64.875h4.052V64.52393h-0.27039c-0.66589,0-.80573-0.24585-0.80573-1.39093V61.42389l0.2821-.27856,1.54181,1.98828a2.73651,2.73651,0,0,1,.748,1.16827c0,0.154-.13159.222-0.4342,0.222H156.6149V64.875h4.0069V64.52393C160.09629,64.3144,160.00046,64.23389,159.11747,63.13361ZM127.5698,56.75708a4.13426,4.13426,0,1,0,4.14319,4.117A4.0262,4.0262,0,0,0,127.5698,56.75708Zm0,7.82452c-1.34424,0-2.07825-1.31213-2.07825-3.6731,0-2.2934.793-3.70862,2.07825-3.70862,1.2829,0,2.07831,1.41522,2.07831,3.70862C129.64811,63.26947,128.91318,64.58161,127.5698,64.58161ZM144.644,63.11829l-1.5105-2.16211a2.03994,2.03994,0,0,0,1.81213-1.99,1.98347,1.98347,0,0,0-1.42719-1.84778,4.67256,4.67256,0,0,0-1.98431-.20959h-3.53339V57.2696c1.04974,0,1.06995.27118,1.06995,1.393v4.45569c0,1.14789-.13525,1.39423-0.80469,1.39423h-0.26526V64.875h4.05157V64.51252h-0.2738c-0.663,0-.80292-0.23444-0.80292-1.39423V61.17823h0.24493l2.40436,3.69678H146.041V64.51252C145.57578,64.39368,145.422,64.24128,144.644,63.11829Zm-3.668-2.3252V57.9253H140.976c0-.42072.17542-0.57251,0.65674-0.57251,0.91968,0,1.32709.51709,1.32709,1.6485C142.95987,60.4527,142.3668,60.77887,140.976,60.7931Zm-36.7868-37.90021a5.00767,5.00767,0,0,0,4.89319-6.19568C129.055,4.17,149.27445,1.667,156.2573,11.48249c3.0423,4.27283,3.02917,10.2348.5376,16.83173a11.77142,11.77142,0,0,1,1.26788,4.7959c8.18127-11.25293,11.14832-21.62762,6.78473-27.76514-7.17181-10.075-31.579-5.50525-56.114,10.35828a5.03149,5.03149,0,1,0-8.13513,5.67749,53.0221,53.0221,0,0,0-6.65625,5.85c2.11853-1.50317,4.45013-3.14178,7.39172-5.2312A5.00248,5.00248,0,0,0,104.18918,22.89289Zm8.43127,24.55084a20.33,20.33,0,0,1-8.13568,2.07379,22.76948,22.76948,0,0,1-8.34509-2.07379s2.80737,5.94556,8.34509,5.94556C110.0228,53.38929,112.62046,47.44373,112.62046,47.44373Zm-8.171-2.69043c3.63818,0,5.3465-4.04572,5.3465-4.04572a20.37036,20.37036,0,0,1-5.3465.99274,22.02786,22.02786,0,0,1-5.48541-.99274S100.80985,44.7533,104.4495,44.7533ZM104.433,37.17438c2.88824,0,4.24414-3.34229,4.24414-3.34229a20.48648,20.48648,0,0,1-4.24414.60663,22.15981,22.15981,0,0,1-4.35016-.60663S101.54746,37.17438,104.433,37.17438Zm3.1698-9.9317a15.921,15.921,0,0,1-3.33325.51141,12.85355,12.85355,0,0,1-3.111-.51141s1.09888,2.50421,3.2616,2.50421C106.58518,29.74689,107.60276,27.24268,107.60276,27.24268ZM77.22019,68.40131a5.70312,5.70312,0,0,1-1.09222-1.88H67.88669a12.855,12.855,0,0,0,1.97168,6.68848c6.5368,9.18481,24.53772,8.52063,52.554-8.4776C122.41239,64.73218,88.72056,81.04963,77.22019,68.40131ZM157.1633,47.407V35.75867c0-6.594-2.63745-9.938-7.83325-9.938a10.43444,10.43444,0,0,0-7.7782,3.60394v-16.041l-0.951-.5708-0.09064.03906-0.24487.09961c-1.22021.5-5.95532,1.91864-8.13013,2.524l-0.52771.14667v2.28558l0.80194-.09119a11.44578,11.44578,0,0,1,1.36566-.05316,1.5648,1.5648,0,0,1,1.13513.33459,2.504,2.504,0,0,1,.3443,1.691l-0.00439.26221V47.29029c0,3.70013-.2287,4.0246-3.05444,4.32361l-0.64569.068v2.24432h13.40631V51.62592l-0.11847-.012c-2.58942-.27747-3.28564-0.35327-3.28564-4.26587V33.61628c0.32452-.40369,2.70752-3.21875,5.63763-3.21875,2.54071,0,3.67426,1.725,3.67426,5.594v11.416c0,3.59491-.6189,4.00665-3.26477,4.20361l-0.05487.00513v2.31H160.6348V51.72608l-0.59552-.10529C157.49149,51.16883,157.1633,51.10883,157.1633,47.407Z" transform="translate(-66.14457 -0.00144)"/>
</svg>
