<svg id="Слой_1" data-name="Слой 1" xmlns="http://www.w3.org/2000/svg" viewBox="0 0 82.90919 53.36575">
  <defs>
    <style>
      .cls-1 {
        fill: #232425;
      }
    </style>
  </defs>
  <title>img_service_logo_gyft</title>
  <text x="-75.04535" y="-12.86378"/>  <path class="cls-1" d="M100.86393,26.22651q-2.87375-.00275-5.747,0c-0.29572.001-.32721,0.03369-0.33093,0.32928-0.00458.372,0.00305,0.74078-.00458,1.11169a2.74921,2.74921,0,0,1-.06128.37659,17.85836,17.85836,0,0,0-1.61139-.778c-0.81824-.30157-1.6554-0.56128-2.49951-0.78058a8.72782,8.72782,0,0,0-1.37579-.15363c-0.21051-.01807-0.42242-0.0354-0.63385-0.03265-0.71814.01178-1.43616,0.03265-2.15436,0.05a0.15981,0.15981,0,0,0-.06171.01306c-0.34009.15271-.71979,0.09912-1.0733,0.22852-0.5423.20032-1.1217,0.2984-1.6662,0.49323a11.16612,11.16612,0,0,0-2.38159,1.18976c-0.2818.1853-.579,0.35205-0.8396,0.56372-0.42181.34241-.81549,0.71979-1.22772,1.07544a11.74286,11.74286,0,0,0-1.7973,2.0954,10.36355,10.36355,0,0,0-.782,1.3302,12.99619,12.99619,0,0,0-.60223,1.34326,14.4408,14.4408,0,0,0-.46027,1.43689,12.72306,12.72306,0,0,0-.28,1.362c-0.09265.613-.17108,1.23071-0.219,1.84741a6.3214,6.3214,0,0,0,.0943,1.318c0.08362,0.62714.14771,1.25574,0.27045,1.87921a13.45372,13.45372,0,0,0,.7677,2.39331,12.33006,12.33006,0,0,0,.74438,1.47827,11.67879,11.67879,0,0,0,1.28571,1.82434,14.17624,14.17624,0,0,0,1.13348,1.18018,10.22553,10.22553,0,0,0,1.2558,1.05371,12.438,12.438,0,0,0,1.94781,1.149,10.28827,10.28827,0,0,0,1.99207.75153c0.1944,0.04089.38531,0.09857,0.578,0.14771a8.19363,8.19363,0,0,0,.90912.22839c0.5332,0.0722,1.0708.1203,1.60828,0.148a13.50733,13.50733,0,0,0,2.65649-.148c0.06183-.00964.12152-0.0332,0.18292-0.0473,0.14148-.03491.283-0.0694,0.425-0.1012,0.07184-.01593.147-0.0177,0.21722-0.03644,0.23047-.0658.46112-0.13208,0.68951-0.20526,0.366-.118.741-0.2157,1.0932-0.36639,0.53088-.228,1.04486-0.495,1.56769-0.74213a2.27774,2.27774,0,0,1,.26837-0.08679c0.01685,0.14587.03973,0.25751,0.04059,0.36792,0.00385,0.45459.00885,0.90826-.0022,1.36328a8.88646,8.88646,0,0,1-.11755,1.3866,6.57905,6.57905,0,0,1-1.042,2.47638,6.12006,6.12006,0,0,1-1.5625,1.62762,6.22666,6.22666,0,0,1-2.19763,1.05719,6.49267,6.49267,0,0,1-1.58289.229,8.14657,8.14657,0,0,1-.91882-0.03229,7.20442,7.20442,0,0,1-.97571-0.21759,5.63381,5.63381,0,0,1-.9184-0.30963,7.89362,7.89362,0,0,1-1.74377-1.13037c-0.25232-.21661-0.26288-0.21069-0.509.03809-0.65808.66492-1.31287,1.33478-1.97009,2.001q-1.01669,1.0307-2.03448,2.06091c-0.07812.079-.14581,0.16888-0.20081,0.23389a9.11958,9.11958,0,0,0,.81152.8374,13.625,13.625,0,0,0,2.65906,1.7276,11.14584,11.14584,0,0,0,1.28943.56262,11.86583,11.86583,0,0,0,3.34113.67719,1.8503,1.8503,0,0,1,.3421.05768,3.8926,3.8926,0,0,0,1.3205.0249c0.177-.0199.351-0.07715,0.52777-0.08759a11.17436,11.17436,0,0,0,2.183-.366,6.7062,6.7062,0,0,0,1.314-.44061c0.3559-.1734.7373-0.29474,1.09052-0.47461A13.50871,13.50871,0,0,0,95.7421,63.6897a12.99763,12.99763,0,0,0,2.52081-2.40845,15.06131,15.06131,0,0,0,1.1521-1.6889,14.91012,14.91012,0,0,0,1.10968-2.46277,10.84343,10.84343,0,0,0,.43195-1.7616c0.06158-.32294.04559-0.654,0.12817-0.96509a5.045,5.045,0,0,0,.09369-1.32153q0.00421-13.22983.00269-26.46106c0-.02094.00012-0.04132-0.00018-0.06274C101.1763,26.24555,101.163,26.22651,100.86393,26.22651Zm-6.6217,16.09308a6.33756,6.33756,0,0,1-.93451,1.54681,8.66985,8.66985,0,0,1-.94922.96869c-0.20605.17529-.44556,0.3092-0.66357,0.4696a5.05556,5.05556,0,0,1-1.70453.79779,5.15673,5.15673,0,0,1-.6142.15167,8.64678,8.64678,0,0,1-1.19751.12091,6.16706,6.16706,0,0,1-1.26007-.12451,8.1292,8.1292,0,0,1-1.38623-.431,6.48182,6.48182,0,0,1-2.32849-1.68439,7.148,7.148,0,0,1-1.117-1.70752,6.2845,6.2845,0,0,1-.34247-1.03693c-0.08783-.31006-0.15179-0.62848-0.21991-0.94318a1.47879,1.47879,0,0,1-.02441-0.2843c-0.00409-.327-0.00659-0.65582-0.00427-0.9837a6.21047,6.21047,0,0,1,.21967-1.29559,8.47962,8.47962,0,0,1,.24561-0.83929,5.81155,5.81155,0,0,1,.7276-1.35193A6.41812,6.41812,0,0,1,84.49552,33.897a6.651,6.651,0,0,1,1.71509-.82147,7.46783,7.46783,0,0,1,.86273-0.16711,0.90928,0.90928,0,0,0,.1568-0.01642,2.67962,2.67962,0,0,1,1.50055-.08942,7.51869,7.51869,0,0,1,2.13525.58313,6.975,6.975,0,0,1,2.43219,1.90149,8.28835,8.28835,0,0,1,.8844,1.40369,6.40355,6.40355,0,0,1,.4314,1.25262,5.21317,5.21317,0,0,1,.15906,1.6203A5.89506,5.89506,0,0,1,94.24222,42.31958Zm34.25848-16.09308q-2.88977-.00275-5.77881,0c-0.27411.001-.2901,0.02136-0.29749,0.28516-0.002.07361-.00049,0.14813-0.00049,0.22211q0,3.45786,0,6.91614c-0.00043,2.11548.00671,4.2309-.00909,6.3454a5.67685,5.67685,0,0,1-.15631,1.24658,8.12128,8.12128,0,0,1-.39343,1.0827,6.08844,6.08844,0,0,1-1.24176,1.92322,6.70556,6.70556,0,0,1-1.2782,1.06909,5.96436,5.96436,0,0,1-1.59314.74847,10.92186,10.92186,0,0,1-1.5238.27509,5.17535,5.17535,0,0,1-1.66907-.09668,5.4894,5.4894,0,0,1-2.14142-.81567,9.88345,9.88345,0,0,1-1.17487-.88281,6.68757,6.68757,0,0,1-1.49744-2.08453,6.21748,6.21748,0,0,1-.3761-1.10486,4.714,4.714,0,0,1-.2547-1.51733c0.017-.23157.00153-0.465,0.00153-0.698q-0.00027-6.1875-.00018-12.3736V26.34919H102.727c-0.00714.15668-.01672,0.27112-0.017,0.386q-0.00046,6.5853.00623,13.16742c0.00146,0.55817.08331,1.11627,0.13037,1.6745a1.13957,1.13957,0,0,0,.0415.15161c0.03363,0.14166.06812,0.2829,0.09662,0.426,0.0163,0.08313.01111,0.17029,0.0321,0.25073,0.06641,0.25159.138,0.50269,0.212,0.75208a12.1845,12.1845,0,0,0,.42145,1.37152c0.2804,0.65479.61237,1.2879,0.94708,1.916a6.80823,6.80823,0,0,0,.61346.95013c0.3385,0.44232.69092,0.8764,1.06854,1.28381a14.5064,14.5064,0,0,0,1.216,1.18347,14.19,14.19,0,0,0,1.2417.90558,11.08425,11.08425,0,0,0,3.40546,1.57953c0.20184,0.05261.40344,0.1076,0.60614,0.1571a9.75509,9.75509,0,0,0,.97418.23291c0.46973,0.06677.94452,0.1037,1.4184,0.134a13.47019,13.47019,0,0,0,2.78339-.13837c0.06232-.00964.12262-0.03,0.184-0.04462,0.14148-.0354.28229-0.07312,0.42438-0.10443,0.0719-.01678.14771-0.015,0.218-0.035,0.40149-.114.80408-0.22571,1.2027-0.34967a6.34477,6.34477,0,0,0,.79462-0.28345c0.47687-.22211.94067-0.47,1.4129-0.703a0.775,0.775,0,0,1,.21747-0.039,0.36168,0.36168,0,0,1,.03613.094,17.1665,17.1665,0,0,1-.1001,2.90112,6.06371,6.06371,0,0,1-.31561,1.17749,7.59181,7.59181,0,0,1-1.07349,1.84613,6.507,6.507,0,0,1-1.32611,1.24487,9.27965,9.27965,0,0,1-1.40753.7688,4.76134,4.76134,0,0,1-1.0481.3111c-0.40076.07849-.81189,0.10175-1.21808,0.15161a0.25,0.25,0,0,0-.0791.04773V66.2165a3.114,3.114,0,0,0,.393-0.0036c0.1662-.02362.32751-0.08185,0.49359-0.10309,0.4187-.054.84241-0.07544,1.25739-0.148,0.4975-.08771.99249-0.1972,1.48071-0.3266a7.76827,7.76827,0,0,0,.944-0.34833,12.75521,12.75521,0,0,0,1.57117-.70117,13.97733,13.97733,0,0,0,1.47711-.96375,16.62062,16.62062,0,0,0,1.27612-1.07538,13.20058,13.20058,0,0,0,1.72919-2.04639,15.69177,15.69177,0,0,0,1.09918-1.906,11.21149,11.21149,0,0,0,.46051-1.09631,8.83541,8.83541,0,0,0,.31458-0.9809,16.8177,16.8177,0,0,0,.47742-3.24847q0.02023-13.30966.01117-26.61871c0-.03223.00043-0.06451-0.00055-0.09534C128.82261,26.2547,128.80063,26.22748,128.50071,26.22651Zm23.33453,6.57825c0.08466,0.00183.16937,0,.25415,0q2.69916,0,5.39813-.00049c0.144-.00128.28772-0.01862,0.4657-0.0285V32.3711q0-2.66629-.00018-5.33075c0-.19128.00439-0.38147-0.00189-0.57086-0.00641-.208-0.03381-0.23108-0.24353-0.243-0.07385-.00311-0.14819-0.00043-0.222-0.00043q-2.79465,0-5.58881,0c-0.6037.00043-.53864,0-0.53864-0.53131q-0.00165-6.17175-.00067-12.34308V12.92926c-0.29492-.08038-6.0921-0.09-6.45343-0.01086v0.4519q0,12.16708.00439,24.337a20.61055,20.61055,0,0,0,.12213,3.44147,17.02092,17.02092,0,0,0,.36279,1.92651c0.14618,0.50232.29791,1.00452,0.48578,1.49414a10.15981,10.15981,0,0,0,.625,1.3656c0.3266,0.574.70062,1.12128,1.06934,1.67029a9.28757,9.28757,0,0,0,1.24817,1.45648c0.38245,0.37189.80121,0.7066,1.2041,1.05811a8.88295,8.88295,0,0,0,1.85895,1.2276,10.77863,10.77863,0,0,0,2.04657.88373,9.57134,9.57134,0,0,0,1.48853.36786,1.20312,1.20312,0,0,1,.15186.04c0.15179,0.039.30206,0.08435,0.45557,0.11255a3.59342,3.59342,0,0,0,.44055.05225q0.67923,0.04349,1.35913.07489a0.282,0.282,0,0,0,.10681-0.0481V46.331c-0.12982-.01093-0.24274-0.0213-0.3559-0.029a6.16879,6.16879,0,0,1-2.79266-.8161,7.2558,7.2558,0,0,1-1.62256-1.2785,6.967,6.967,0,0,1-1.20422-1.83563,5.54073,5.54073,0,0,1-.37762-1.12262,7.1646,7.1646,0,0,1-.22327-1.585c0.00067-2.12579.006-4.25171-.00549-6.37714A0.39,0.39,0,0,1,151.83524,32.80475Zm-8.70563-6.57867c-0.07422-.0022-0.14838,0-0.22241,0q-2.84216,0-5.68408-.0014c-0.39581,0-.43713-0.04718-0.39648-0.44318a0.83146,0.83146,0,0,1,.01727-0.12531,5.51322,5.51322,0,0,1,.20288-1.04822c0.10162-.21069.09344-0.47278,0.17615-0.69489a7.04232,7.04232,0,0,1,.83588-1.60809,6.71747,6.71747,0,0,1,1.81567-1.77295,5.80327,5.80327,0,0,1,.96143-0.53455,5.7183,5.7183,0,0,1,1.8009-.465c0.24982-.01587.49707-0.07037,0.75922-0.10852V12.92786a0.22129,0.22129,0,0,0-.0791-0.03949q-0.86957.05923-1.73834,0.12354c-0.0202.00189-.03967,0.01459-0.06006,0.01855-0.1626.03821-.32513,0.075-0.48871,0.10809-0.07208.01331-.14862,0.00641-0.2193,0.02411q-0.4097.10693-.81641,0.2226a7.2662,7.2662,0,0,0-1.0177.30011,17.76553,17.76553,0,0,0-2.31158,1.15131,15.28783,15.28783,0,0,0-1.64514,1.21338c-0.3916.32983-.722,0.73175-1.09528,1.08545a8.93218,8.93218,0,0,0-1.127,1.3916,11.67868,11.67868,0,0,0-1.07379,1.84778,11.00749,11.00749,0,0,0-.72272,1.87927,8.36927,8.36927,0,0,1-.28375,1.09991c-0.14185.35022-.06934,0.733-0.22583,1.0722-0.018.94922-.162,1.89069-0.13177,2.84521,0.03387,1.06726.00806,2.13629,0.00806,3.20447q0,11.0105.00012,22.02094c0,0.38647.00311,0.38867,0.38831,0.3924,0.053,0.00049.10577,0,.15869,0q2.68332,0,5.36639,0c0.56714,0,.52881.04169,0.52881-0.53644q0.00046-9.47214-.00287-18.94366c-0.00031-.47589.00757-0.61029,0.61957-0.60712,1.84149,0.00873,3.68329.00269,5.5249,0.0022,0.14349-.00128.28693-0.0191,0.43488-0.0285a1.6946,1.6946,0,0,0,.025-0.18811q0.00192-3.04687.00061-6.09216C143.41153,26.25611,143.381,26.23285,143.12961,26.22608Z" transform="translate(-75.04535 -12.86378)"/>
</svg>
